%YAML 1.1
%TAG !u! tag:unity3d.com,2011:
--- !u!114 &11400000
MonoBehaviour:
  m_ObjectHideFlags: 0
  m_CorrespondingSourceObject: {fileID: 0}
  m_PrefabInstance: {fileID: 0}
  m_PrefabAsset: {fileID: 0}
  m_GameObject: {fileID: 0}
  m_Enabled: 1
  m_EditorHideFlags: 0
  m_Script: {fileID: 11500000, guid: 81a6f4a0b2cbcfc49be2ab5cbc77a6a9, type: 3}
  m_Name: fruit_sudoku
  m_EditorClassIdentifier: 
  gameScene:
    m_SceneAsset: {fileID: 102900000, guid: 3bcc5ccf19614ef58e31b8771a2b142b, type: 3}
    m_IsDirty: 0
    m_ScenePath: Assets/Games/fruitSudoku/Scenes/frutsudou.unity
  gameKey: fruit_sudoku
  gameBackGround: {fileID: 21300000, guid: 2ff81dde1b650a1469b90f932ebd6ad2, type: 3}
  gameCustomRoomProperties: {fileID: 0}
