%YAML 1.1
%TAG !u! tag:unity3d.com,2011:
--- !u!1045 &1
EditorBuildSettings:
  m_ObjectHideFlags: 0
  serializedVersion: 2
  m_Scenes:
  - enabled: 1
    path: Assets/MainMenu.unity
    guid: 5d6021b839dae2c479effb5019312bd2
  - enabled: 1
    path: Assets/Games/Sudoku/Scenes/sudoku.unity
    guid: 2cda990e2423bbf4892e6590ba056729
  - enabled: 1
    path: Assets/Games/fruitSudoku/Scenes/fruit_sudoku.unity
    guid: 3bcc5ccf19614ef58e31b8771a2b142b
  m_configObjects: {}
